翻译 | 信号检测论的贝叶斯估计 (一) | Chinese Open Science Network
…
接下来我们将用R统计编程语言来探究一个实例，首先我们需要加载tidyverse工具包（Wickham，2016）

library(tidyverse)

我们将使用stdalt包中的案例数据（Wright，2011）。该包以前可以在CRAN上找到，但现在已经没有了，因此必须从GitHub安装：

devtools::install_github("cran/sdtalt")

这个案例数据称为“confcontr”，数据来自Skagerberg和Wright记忆一致性(memory conformity)研究中的对照组(Skagerberg & Wright，2008)

# install.packages("sdtalt")
library(sdtalt)
data(confcontr)
## # A tibble: 3,100 x 3
##    subno sayold isold
##   <dbl> <dbl> <dbl>
##  1    53      1     0
##  2    53      1     1
##  3    53      1     1
##  4    53      1     1
##  5    53      1     0
##  6    53      1     1
##  7    53      1     0
##  8    53      0     0
##  9    53      0     1
## 10    53      0     1
## # ... with 3,090 more rows
…
Φ 是累积正态密度函数(cumulative normal density function)，可将z分数转换为概率，其反函数Φ^(-1) 将概率（例如击中率或虚报率）转换为z分数。标准化后的击中率和虚报率分别表示为 zHR 和zFAR。反应标准c则由-zFAR（负虚报率的标准分数）表示(DeCarlo，1998)。

我们可以用qnorm()进行z分数转化（即Φ^(-1)）。接下来，根据每个被试反应类型（击中，虚报，漏报，正确拒斥）的数量计算出d’ 和c ：

sdt <- sdt %>% 
    mutate(zhr = qnorm(hit / (hit+miss)),
           zfa = qnorm(fa / (fa+cr)),
           dprime = zhr-zfa,
           crit = -zfa)
round(sdt, 2)
## # A tibble: 31 x 9
## # Groups:   subno [31]
##    subno    cr    fa   hit  miss   zhr    zfa dprime  crit
##    <dbl> <dbl> <dbl> <dbl> <dbl> <dbl> <dbl> <dbl> <dbl>
##  1    53    33    20    25    22  0.08 -0.31    0.39 0.31 
##  2    54    39    14    28    19  0.24 -0.63    0.87 0.63 
##  3    55    36    17    31    16  0.41 -0.47    0.88 0.47 
##  4    56    43    10    38     9  0.87 -0.88    1.76 0.88 
##  5    57    35    18    29    18  0.3  -0.41    0.71 0.41 
##  6    58    41    12    30    17  0.35 -0.75    1.1  0.75 
##  7    59    46     7    21    26 -0.13 -1.12    0.98 1.12 
##  8    60    38    15    33    14  0.53 -0.570   1.1  0.570
##  9    61    42    11    25    22  0.08 -0.81    0.9  0.81 
## 10    62    45     8    22    25 -0.08 -1.03    0.95 1.03 
## # ... with 21 more rows
…
