翻译 | 信号检测论的贝叶斯估计 (三) | Chinese Open Science Network
…
然而，这几篇博客文章的一个主题是：我们不需要将数据汇总为计数数据（或单元（cell）数据，或类似的），而是尽可能的直接使用实验提供的原始数据。我认为，特别是当我们想包含协变量时，使用这种试次水平的数据在计算和概念上都更容易。以下是原始试次水平格式的数据：

d <- tibble( 
      isold = c(rep(0, 174), rep(0, 172), rep(0, 104), rep(0, 92), rep(0, 41), rep(0, 8),
      rep(1, 46), rep(1, 57), rep(1, 66), rep(1, 101), rep(1, 154), rep(1, 173)),
      y = c(rep(1, 174), rep(2, 172), rep(3, 104), rep(4, 92), rep(5, 41), rep(6, 8),
      rep(1, 46), rep(2, 57), rep(3, 66), rep(4, 101), rep(5, 154), rep(6, 173)) 
  ) 
  d
  ## # A tibble: 1,188 x 2
  ##    isold     y
  ##    <dbl> <dbl>
  ##  1     0     1
  ##  2     0     1
  ##  3     0    1
  ##  4     0     1
  ##  5     0     1
  ##  6     0     1
  ##  7     0     1
  ##  8     0     1
  ##  9     0     1
  ## 10     0     1
  ## # ... with 1,178 more rows
…
